Frame #0
Renderer: 132597085cc - 1 call(s)
{
    Scene: 2147680cc - 1 call(s)
    {
        Draw Debug Octree: 2109216cc - 1 call(s)
        {
            Draw Debug Octree: 1990752cc - 8 call(s)
            {
                Draw Debug Octree: 1608576cc - 29 call(s)
                {
                    Draw Debug Octree: 1011520cc - 35 call(s)
                    {
                        Draw Debug Octree: 49184cc - 23 call(s)
                        {
                            Draw Debug Octree: 1888cc - 9 call(s)
                        }
                    }
                }
            }
        }
    }
    Drawer: 106447936cc - 1 call(s)
    {
        Camera Update: 2240cc - 1 call(s)
        Draw Back Debug: 37604288cc - 1 call(s)
        {
            Draw Debug Shapes: 3454245cc - 105 call(s)
            {
                Draw Renderable: 282275cc - 105 call(s)
                {
                    Setup Mesh: 19200cc - 105 call(s)
                    Draw Call: 25409cc - 105 call(s)
                }
            }
            Draw Debug Lines: 32633581cc - 1260 call(s)
            {
                Draw Renderable: 2318627cc - 1260 call(s)
                {
                    Setup Mesh: 233792cc - 1260 call(s)
                    Draw Call: 310752cc - 1260 call(s)
                }
            }
        }
        Draw Objects: 1635872cc - 1 call(s)
        {
            Draw Scene: 838912cc - 1 call(s)
            {
                Query Objects from octree: 565248cc - 1 call(s)
                Draw queried objects: 265856cc - 1 call(s)
                {
                    Draw Renderable: 263552cc - 9 call(s)
                    {
                        Setup Program: 163968cc - 9 call(s)
                        Setup Mesh: 800cc - 9 call(s)
                        Draw Call: 384cc - 9 call(s)
                    }
                }
            }
        }
        Draw Front Debug: 66300160cc - 1 call(s)
        {
            Draw Debug Shapes: 9503904cc - 105 call(s)
            {
                Draw Renderable: 289026cc - 210 call(s)
                {
                    Setup Mesh: 38144cc - 210 call(s)
                    Draw Call: 42464cc - 210 call(s)
                }
            }
            Draw Debug Lines: 55638559cc - 1260 call(s)
            {
                Draw Renderable: 1897934cc - 1260 call(s)
                {
                    Setup Mesh: 245632cc - 1260 call(s)
                    Draw Call: 211840cc - 1260 call(s)
                }
            }
        }
        Clean Debug Objects: 19904cc - 1 call(s)
    }
    Editor: 11036064cc - 1 call(s)
    {
        Main Window: 409760cc - 1 call(s)
        Object Window: 576cc - 1 call(s)
        Log Window: 64cc - 1 call(s)
    }
    Window: 12949757cc - 1 call(s)
}
